CONTAINER oincandescencelight
{
	NAME oincandescencelight;
	INCLUDE Obase;

	GROUP INCANDESCENCE_LIGHT_GROUP
	{
		DEFAULT 1;
		COLOR INCANDESCENCE_LIGHT_COLOR{}
		REAL INCANDESCENCE_LIGHT_INTENSITY {MIN 0; MINSLIDER 0; MAXSLIDER 10; STEP 0.01; CUSTOMGUI REALSLIDER;}
		REAL INCANDESCENCE_LIGHT_EXPOSURE { MINSLIDER -5; MAXSLIDER 5; STEP 0.01; CUSTOMGUI REALSLIDER;}
		IN_EXCLUDE INCANDESCENCE_LIGHT_GEOMETRY {ANIM OFF;}
	}
}
