CONTAINER DL_ATMOSPHERE
{
	NAME DL_ATMOSPHERE;

	GROUP DL_ATMOSPHERE_SHADER
	{
			COLOR DL_ATMOSPHERE_COLOR{SCALE_H;}
			REAL DL_ATMOSPHERE_DENSITY{MIN 0; MAXSLIDER 5; STEP 0.2; SCALE_H; CUSTOMGUI REALSLIDER;}
			REAL DL_ATMOSPHERE_SUPER_REFLECTIVE{MIN 0; MAX 1; STEP 0.01; SCALE_H; CUSTOMGUI REALSLIDER;}
	}
}