CONTAINER dl_aov_color
{
	NAME dl_aov_color;

	GROUP AOV_COLOR_GROUP
	{
		SEPARATOR{LINE;}
		
		GROUP
		{
			COLUMNS 2;	
			COLOR AOV_COLOR{SCALE_H;}
			SHADERLINK AOV_COLOR_SHADER{ANIM OFF;HIDDEN;}
			SHADERLINK AOV_COLOR_SHADER_TEMP{ANIM OFF;HIDDEN;}
			POPUP POPUP_AOV_COLOR{SCALE_V;}
			BOOL CORRECTION_INVERT {}
		}
	}
}