CONTAINER dl_car_paint
{
	NAME dl_car_paint;
	
	INCLUDE Mpreview;
	INCLUDE Mbase;
	
	GROUP Obaselist
	{
		BOOL CAR_MATERIAL_PAGE { HIDDEN; PAGE; PARENTMSG CAR_MATERIAL; }
	}
	
	GROUP CAR_MATERIAL
	{
		SEPARATOR{LINE;}
		GROUP
		{
		
			COLUMNS 2;

			SEPARATOR COATING_LAYER{SCALE_H;}
			STATICTEXT{}
			
			REAL COATING_LAYER_THICKNESS{SCALE_H; MIN 0; MAX 1; MINSLIDER 0; MAXSLIDER 1; STEP 0.001; CUSTOMGUI REALSLIDER;}
			SHADERLINK COATING_LAYER_THICKNESS_SHADER{ANIM ON; SCALE_H; HIDDEN;}
			SHADERLINK COATING_LAYER_THICKNESS_SHADER_TEMP{ANIM ON; SCALE_H; HIDDEN;}
			POPUP POPUP_THICKNESS{SCALE_V;}
			
			COLOR COATING_LAYER_COLOR{SCALE_H;}
			SHADERLINK COATING_LAYER_COLOR_SHADER{ANIM ON; HIDDEN;}
			SHADERLINK COATING_LAYER_COLOR_SHADER_TEMP{ANIM ON; HIDDEN;}
			POPUP POPUP_COLOR{SCALE_V;}

			REAL COATING_LAYER_ROUGHNESS{SCALE_H; MIN 0; MAX 1; MINSLIDER 0; MAXSLIDER 1; STEP 0.001; CUSTOMGUI REALSLIDER;}
			SHADERLINK COATING_LAYER_ROUGHNESS_SHADER{ANIM ON; HIDDEN;}
			SHADERLINK COATING_LAYER_ROUGHNESS_SHADER_TEMP{ANIM ON; HIDDEN;}
			POPUP POPUP_ROUGHNESS{SCALE_V;}

			REAL COATING_LAYER_SPECULAR_LEVEL{SCALE_H; MIN 0; MAX 1; MINSLIDER 0; MAXSLIDER 1; STEP 0.001; CUSTOMGUI REALSLIDER;}
			SHADERLINK COATING_LAYER_SPECULAR_LEVEL_SHADER{ANIM ON; HIDDEN;}
			SHADERLINK COATING_LAYER_SPECULAR_LEVEL_SHADER_TEMP{ANIM ON; HIDDEN;}
			POPUP POPUP_SPECULAR{SCALE_V;}
			
				
			STATICTEXT{SCALE_H;}
			STATICTEXT{}
			SEPARATOR FLAKES{SCALE_H;}
			STATICTEXT{}
			
			
			REAL FLAKES_DENSITY{SCALE_H;MIN 0; MAX 1; MINSLIDER 0; MAXSLIDER 1; STEP 0.001; CUSTOMGUI REALSLIDER;}
			SHADERLINK FLAKES_DENSITY_SHADER{SCALE_H;ANIM OFF; HIDDEN;}
			SHADERLINK FLAKES_DENSITY_SHADER_TEMP{ANIM OFF; HIDDEN;}
			POPUP POPUP_FLAKES_DENSITY{SCALE_V;}
			
			COLOR FLAKES_COLOR{SCALE_H;}
			SHADERLINK FLAKES_COLOR_SHADER{SCALE_H;ANIM OFF;HIDDEN;}
			SHADERLINK FLAKES_COLOR_SHADER_TEMP{ANIM OFF;HIDDEN;}
			POPUP POPUP_FLAKES_COLOR{SCALE_V;}
			
			REAL FLAKES_ROUGHNESS{SCALE_H;MIN 0; MAX 1; MINSLIDER 0; MAXSLIDER 1; STEP 0.001; CUSTOMGUI REALSLIDER;}
			SHADERLINK FLAKES_ROUGHNESS_SHADER{SCALE_H; ANIM OFF; HIDDEN;}
			SHADERLINK FLAKES_ROUGHNESS_SHADER_TEMP{ANIM OFF; HIDDEN;}
			POPUP POPUP_FLAKES_ROUGHNESS{SCALE_V;}
			
			REAL FLAKES_SCALE{SCALE_H; MIN 0; MAX 1; MINSLIDER 0; MAXSLIDER 1; STEP 0.001; CUSTOMGUI REALSLIDER;}
			SHADERLINK FLAKES_SCALE_SHADER{SCALE_H;ANIM OFF;HIDDEN;}
			SHADERLINK FLAKES_SCALE_SHADER_TEMP{ANIM OFF;HIDDEN;}
			POPUP POPUP_FLAKES_SCALE{SCALE_V;}
			
			REAL FLAKES_RANDOMNESS{SCALE_H; MIN 0; MAX 1; MINSLIDER 0; MAXSLIDER 1; STEP 0.001; CUSTOMGUI REALSLIDER;}
			SHADERLINK FLAKES_RANDOMNESS_SHADER{SCALE_H; ANIM OFF;HIDDEN;}
			SHADERLINK FLAKES_RANDOMNESS_SHADER_TEMP{ANIM OFF;HIDDEN;}
			POPUP POPUP_FLAKES_RANDOMNESS{SCALE_V;}

				
			STATICTEXT{SCALE_H;}
			STATICTEXT{}
			SEPARATOR BASE_LAYER{SCALE_H;}
			STATICTEXT{}
					
					
			COLOR BASE_LAYER_COLOR{SCALE_H;}
			SHADERLINK BASE_LAYER_COLOR_SHADER{ANIM ON; HIDDEN;}
			SHADERLINK BASE_LAYER_COLOR_SHADER_TEMP{ANIM ON; HIDDEN;}
			POPUP POPUP_BASECOLOR{SCALE_V;}
		
			REAL BASE_LAYER_ROUGHNESS{SCALE_H; MIN 0; MAX 1; MINSLIDER 0; MAXSLIDER 1; STEP 0.001; CUSTOMGUI REALSLIDER;}
			SHADERLINK BASE_LAYER_ROUGHNESS_SHADER{ANIM OFF; HIDDEN;}
			SHADERLINK BASE_LAYER_ROUGHNESS_SHADER_TEMP{ANIM OFF; HIDDEN;}
			POPUP POPUP_BASEROUGHNESS{SCALE_V;}

			REAL BASE_LAYER_SPECULAR_LEVEL{SCALE_H; MIN 0; MAX 1; MINSLIDER 0; MAXSLIDER 1; STEP 0.001; CUSTOMGUI REALSLIDER;}
			SHADERLINK BASE_LAYER_SPECULAR_LEVEL_SHADER{ANIM OFF; HIDDEN;}
			SHADERLINK BASE_LAYER_SPECULAR_LEVEL_SHADER_TEMP{ANIM OFF; HIDDEN;}
			POPUP POPUP_BASESPECULAR{SCALE_V;}
		
			REAL BASE_LAYER_METALLIC{SCALE_H; MIN 0; MAX 1; MINSLIDER 0; MAXSLIDER 1; STEP 0.001; CUSTOMGUI REALSLIDER;}
			SHADERLINK BASE_LAYER_METALLIC_SHADER{ANIM OFF; HIDDEN;}	
			SHADERLINK BASE_LAYER_METALLIC_SHADER_TEMP{ANIM OFF; HIDDEN;}	
			POPUP POPUP_BASEMETALLIC{SCALE_V;}
			
				
			STATICTEXT{SCALE_H;}
			STATICTEXT{}
			SEPARATOR BUMP{SCALE_H;}
			STATICTEXT{}
					
			LONG BUMP_TYPE
			{
				CYCLE
				{
					BUMP_MAP;
					NORMAL_MAP_DIRECTX;
					NORMAL_MAP_OPENGL;
					DISPLACEMENT_0;
					DISPLACEMENT_5;
				}
			}
			SEPARATOR{}
			
			SHADERLINK BUMP_VALUE{ANIM OFF;}
			SEPARATOR{}
			
			REAL BUMP_INTENSITY{MINSLIDER 0; MAXSLIDER 10; CUSTOMGUI REALSLIDER;}
			SEPARATOR{}
			
			LONG BUMP_LAYERS_AFFECTED
			{
				CYCLE
				{
					AFFECT_BOTH_LAYERS;
					AFFECT_COATING_LAYER;
					AFFECT_BASE_LAYER;
				}
			}	
			
		}
		STATICTEXT{}
		SEPARATOR AOV_PAGE{SCALE_H;}
		LINK DL_AOV_GROUP{SCALE_H;}		
	}
	

	INCLUDE Massign;

}