CONTAINER dl_hair_and_fur
{
	NAME dl_hair_and_fur;

	INCLUDE Mpreview;
	INCLUDE Mbase;
	


	GROUP Obaselist
	{
		BOOL HAIR_AND_FUR_PAGE { HIDDEN; PAGE; PARENTMSG HAIR_AND_FUR;}
	}
	
	GROUP HAIR_AND_FUR
	{
		SEPARATOR {LINE;}
		GROUP
		{
			SEPARATOR HAIR_COLOR{SCALE_H;}
			STATICTEXT{}
			
			COLUMNS 2;
			REAL HAIR_COLOR_MELANIN{SCALE_H;MIN 0; MAX 1; MINSLIDER 0; MAXSLIDER 1; STEP 0.001; CUSTOMGUI REALSLIDER;}
			SHADERLINK HAIR_COLOR_MELANIN_SHADER{SCALE_H;ANIM OFF;HIDDEN;}
			SHADERLINK HAIR_COLOR_MELANIN_SHADER_TEMP{ANIM OFF;HIDDEN;}
			POPUP POPUP_HAIR_COLOR_MELANIN{SCALE_V;}

			
			REAL HAIR_COLOR_MELANIN_RED{SCALE_H;MIN 0; MAX 1; MINSLIDER 0; MAXSLIDER 1; STEP 0.001; CUSTOMGUI REALSLIDER;}
			SHADERLINK HAIR_COLOR_MELANIN_RED_SHADER{SCALE_H;ANIM OFF;HIDDEN;}
			SHADERLINK HAIR_COLOR_MELANIN_RED_SHADER_TEMP{ANIM OFF;HIDDEN;}
			POPUP POPUP_HAIR_COLOR_MELANIN_RED{SCALE_V;}

			COLOR HAIR_COLOR_DYE{SCALE_H;}
			SHADERLINK HAIR_COLOR_DYE_SHADER{SCALE_H;ANIM OFF;HIDDEN;}
			SHADERLINK HAIR_COLOR_DYE_SHADER_TEMP{ANIM OFF;HIDDEN;}
			POPUP POPUP_HAIR_COLOR_DYE{SCALE_V;}
			
			REAL HAIR_COLOR_DYE_WEIGHT{SCALE_H;MIN 0; MAX 1; MINSLIDER 0; MAXSLIDER 1; STEP 0.001; CUSTOMGUI REALSLIDER;}
			SHADERLINK HAIR_COLOR_DYE_WEIGHT_SHADER{SCALE_H;ANIM OFF;HIDDEN;}
			SHADERLINK HAIR_COLOR_DYE_WEIGHT_SHADER_TEMP{ANIM OFF;HIDDEN;}
			POPUP POPUP_HAIR_COLOR_DYE_WEIGHT{SCALE_V;}
			
			
			STATICTEXT{SCALE_H;}
			STATICTEXT{}
			SEPARATOR HAIR_LOOK{SCALE_H;}
			STATICTEXT{}
			
			
			REAL HAIR_LOOK_SPECULAR_LEVEL{SCALE_H;MIN 0; MAX 1; MINSLIDER 0; MAXSLIDER 1; STEP 0.001; CUSTOMGUI REALSLIDER;}
			SHADERLINK HAIR_LOOK_SPECULAR_LEVEL_SHADER{SCALE_H;ANIM OFF;HIDDEN;}
			SHADERLINK HAIR_LOOK_SPECULAR_LEVEL_SHADER_TEMP{ANIM OFF;HIDDEN;}
			POPUP POPUP_HAIR_LOOK_SPECULAR_LEVEL{SCALE_V;}
			
			REAL HAIR_LOOK_ROUGHNESS_ALONG{SCALE_H;MIN 0; MAX 1; MINSLIDER 0; MAXSLIDER 1; STEP 0.001; CUSTOMGUI REALSLIDER;}
			SHADERLINK HAIR_LOOK_ROUGHNESS_ALONG_SHADER{SCALE_H;ANIM OFF;HIDDEN;}
			SHADERLINK HAIR_LOOK_ROUGHNESS_ALONG_SHADER_TEMP{ANIM OFF;HIDDEN;}
			POPUP POPUP_HAIR_LOOK_ROUGHNESS_ALONG{SCALE_V;}
			
			REAL HAIR_LOOK_ROUGHNESS_AROUND{SCALE_H;MIN 0; MAX 1; MINSLIDER 0; MAXSLIDER 1; STEP 0.001; CUSTOMGUI REALSLIDER;}
			SHADERLINK HAIR_LOOK_ROUGHNESS_AROUND_SHADER{SCALE_H;ANIM OFF;HIDDEN;}
			SHADERLINK HAIR_LOOK_ROUGHNESS_AROUND_SHADER_TEMP{SCALE_H;ANIM OFF;HIDDEN;}
			POPUP POPUP_HAIR_LOOK_ROUGHNESS_AROUND{SCALE_V;}

			REAL HAIR_LOOK_MEDULLA{SCALE_H;MIN 0; MAX 1; MINSLIDER 0; MAXSLIDER 1; STEP 0.001; CUSTOMGUI REALSLIDER;}
			SHADERLINK HAIR_LOOK_MEDULLA_SHADER{SCALE_H;ANIM OFF;HIDDEN;}
			SHADERLINK HAIR_LOOK_MEDULLA_SHADER_TEMP{SCALE_H;ANIM OFF;HIDDEN;}
			POPUP POPUP_HAIR_LOOK_MEDULLA{SCALE_V;}
			
			REAL HAIR_LOOK_SYNTHETIC_FIBER{SCALE_H;MIN 0; MAX 1; MINSLIDER 0; MAXSLIDER 1; STEP 0.001; CUSTOMGUI REALSLIDER;}
			SHADERLINK HAIR_LOOK_SYNTHETIC_FIBER_SHADER{SCALE_H;ANIM OFF;HIDDEN;}
			SHADERLINK HAIR_LOOK_SYNTHETIC_FIBER_SHADER_TEMP{ANIM OFF;HIDDEN;}
			POPUP POPUP_HAIR_LOOK_SYNTHETIC_FIBER{SCALE_V;}
			
						
			STATICTEXT{SCALE_H;}
			STATICTEXT{}
			SEPARATOR HAIR_VARIATION{SCALE_H;}
			STATICTEXT{}
			
			REAL HAIR_VARIATION_MELANIN{SCALE_H;MIN 0; MAX 1; MINSLIDER 0; MAXSLIDER 1; STEP 0.001; CUSTOMGUI REALSLIDER;}
			SHADERLINK HAIR_VARIATION_MELANIN_SHADER{SCALE_H;ANIM OFF;HIDDEN;}
			SHADERLINK HAIR_VARIATION_MELANIN_SHADER_TEMP{ANIM OFF;HIDDEN;}
			POPUP POPUP_HAIR_VARIATION_MELANIN{SCALE_V;}
			
			REAL HAIR_VARIATION_MELANIN_RED{SCALE_H;MIN 0; MAX 1; MINSLIDER 0; MAXSLIDER 1; STEP 0.001; CUSTOMGUI REALSLIDER;}
			SHADERLINK HAIR_VARIATION_MELANIN_RED_SHADER{SCALE_H;ANIM OFF;HIDDEN;}
			SHADERLINK HAIR_VARIATION_MELANIN_RED_SHADER_TEMP{ANIM OFF;HIDDEN;}
			POPUP POPUP_HAIR_VARIATION_MELANIN_RED{SCALE_V;}
			
			REAL HAIR_VARIATION_WHITE_HAIR{SCALE_H;MIN 0; MAX 1; MINSLIDER 0; MAXSLIDER 1; STEP 0.001; CUSTOMGUI REALSLIDER;}
			SHADERLINK HAIR_VARIATION_WHITE_HAIR_SHADER{SCALE_H;ANIM OFF;HIDDEN;}
			SHADERLINK HAIR_VARIATION_WHITE_HAIR_SHADER_TEMP{ANIM OFF;HIDDEN;}
			POPUP POPUP_HAIR_VARIATION_WHITE_HAIR{SCALE_V;}
					
			REAL HAIR_VARIATION_DYE_HUE{SCALE_H;MIN 0; MAX 1; MINSLIDER 0; MAXSLIDER 1; STEP 0.001; CUSTOMGUI REALSLIDER;}
			SHADERLINK HAIR_VARIATION_DYE_HUE_SHADER{SCALE_H;ANIM OFF;HIDDEN;}
			SHADERLINK HAIR_VARIATION_DYE_HUE_SHADER_TEMP{ANIM OFF;HIDDEN;}
			POPUP POPUP_HAIR_VARIATION_DYE_HUE{SCALE_V;}
							
			REAL HAIR_VARIATION_DYE_SATURATION{SCALE_H;MIN 0; MAX 1; MINSLIDER 0; MAXSLIDER 1; STEP 0.001; CUSTOMGUI REALSLIDER;}
			SHADERLINK HAIR_VARIATION_DYE_SATURATION_SHADER{SCALE_H;ANIM OFF;HIDDEN;}
			SHADERLINK HAIR_VARIATION_DYE_SATURATION_SHADER_TEMP{ANIM OFF;HIDDEN;}
			POPUP POPUP_HAIR_VARIATION_DYE_SATURATION{SCALE_V;}
									
			REAL HAIR_VARIATION_DYE_VALUE{SCALE_H;MIN 0; MAX 1; MINSLIDER 0; MAXSLIDER 1; STEP 0.001; CUSTOMGUI REALSLIDER;}
			SHADERLINK HAIR_VARIATION_DYE_VALUE_SHADER{SCALE_H;ANIM OFF;HIDDEN;}
			SHADERLINK HAIR_VARIATION_DYE_VALUE_SHADER_TEMP{ANIM OFF;HIDDEN;}
			POPUP POPUP_HAIR_VARIATION_DYE_VALUE{SCALE_V;}
											
			REAL HAIR_VARIATION_ROUGHNESS{SCALE_H;MIN 0; MAX 1; MINSLIDER 0; MAXSLIDER 1; STEP 0.001; CUSTOMGUI REALSLIDER;}
			SHADERLINK HAIR_VARIATION_ROUGHNESS_SHADER{SCALE_H;ANIM OFF;HIDDEN;}
			SHADERLINK HAIR_VARIATION_ROUGHNESS_SHADER_TEMP{ANIM OFF;HIDDEN;}
			POPUP POPUP_HAIR_VARIATION_ROUGHNESS{SCALE_V;}
													
			REAL HAIR_VARIATION_SPECULAR_LEVEL{SCALE_H;MIN 0; MAX 1; MINSLIDER 0; MAXSLIDER 1; STEP 0.001; CUSTOMGUI REALSLIDER;}
			SHADERLINK HAIR_VARIATION_SPECULAR_LEVEL_SHADER{SCALE_H;ANIM OFF;HIDDEN;}
			SHADERLINK HAIR_VARIATION_SPECULAR_LEVEL_SHADER_TEMP{ANIM OFF;HIDDEN;}
			POPUP POPUP_HAIR_VARIATION_SPECULAR_LEVEL{SCALE_V;}
			
							
			STATICTEXT{SCALE_H;}
			STATICTEXT{}
			SEPARATOR HAIR_BOOST{SCALE_H;}
			STATICTEXT{}
			
			
			REAL HAIR_BOOST_GLOSSINESS{SCALE_H;MIN 0; MAX 1; MINSLIDER 0; MAXSLIDER 1; STEP 0.001; CUSTOMGUI REALSLIDER;}
			SHADERLINK HAIR_BOOST_GLOSSINESS_SHADER{SCALE_H;ANIM OFF;HIDDEN;}
			SHADERLINK HAIR_BOOST_GLOSSINESS_SHADER_TEMP{ANIM OFF;HIDDEN;}
			POPUP POPUP_HAIR_BOOST_GLOSSINESS{SCALE_V;}
			
			REAL HAIR_BOOST_SPECULAR_LEVEL{SCALE_H;MIN 0; MAX 1; MINSLIDER 0; MAXSLIDER 1; STEP 0.001; CUSTOMGUI REALSLIDER;}
			SHADERLINK HAIR_BOOST_SPECULAR_LEVEL_SHADER{SCALE_H;ANIM OFF;HIDDEN;}
			SHADERLINK HAIR_BOOST_SPECULAR_LEVEL_SHADER_TEMP{ANIM OFF;HIDDEN;}
			POPUP POPUP_HAIR_BOOST_SPECULAR_LEVEL{SCALE_V;}
					
			REAL HAIR_BOOST_TRANSMISSION{SCALE_H;MIN 0; MAX 1; MINSLIDER 0; MAXSLIDER 1; STEP 0.001; CUSTOMGUI REALSLIDER;}
			SHADERLINK HAIR_BOOST_TRANSMISSION_SHADER{SCALE_H;ANIM OFF;HIDDEN;}
			SHADERLINK HAIR_BOOST_TRANSMISSION_SHADER_TEMP{ANIM OFF;HIDDEN;}
			POPUP POPUP_HAIR_BOOST_TRANSMISSION{SCALE_V;}
		}
		STATICTEXT{}
		SEPARATOR AOV_PAGE{SCALE_H;}
		LINK DL_AOV_GROUP{SCALE_H;}
	}

	//INCLUDE Millum;
	INCLUDE Massign;
}
