	CONTAINER dl_random_color
{
	NAME dl_random_color;

	GROUP SHADER_GROUP
	{
		SEPARATOR{LINE;}

		GROUP
		{
		
			COLUMNS 2;

			SEPARATOR INPUT{}
			STATICTEXT{}
		
			COLOR INPUT_COLOR1{SCALE_H;}
			SHADERLINK INPUT_COLOR1_SHADER{ANIM OFF;HIDDEN;}
			SHADERLINK INPUT_COLOR1_SHADER_TEMP{ANIM OFF;HIDDEN;}
			POPUP POPUP_INPUT_COLOR1{SCALE_V;}
			
			REAL INPUT_IMPORTANCE1{SCALE_H;MIN 0; MINSLIDER 0; MAXSLIDER 1; STEP 0.001; CUSTOMGUI REALSLIDER;}
			SHADERLINK INPUT_IMPORTANCE1_SHADER{ANIM OFF;HIDDEN;}
			SHADERLINK INPUT_IMPORTANCE1_SHADER_TEMP{ANIM OFF;HIDDEN;}
			POPUP POPUP_INPUT_IMPORTANCE1{SCALE_V;}
			
			STATICTEXT {}
			STATICTEXT {}
			
			COLOR INPUT_COLOR2{SCALE_H;}
			SHADERLINK INPUT_COLOR2_SHADER{ANIM OFF;HIDDEN;}
			SHADERLINK INPUT_COLOR2_SHADER_TEMP{ANIM OFF;HIDDEN;}
			POPUP POPUP_INPUT_COLOR2{SCALE_V;}
			
			REAL INPUT_IMPORTANCE2{SCALE_H;MIN 0; MINSLIDER 0; MAXSLIDER 1; STEP 0.001; CUSTOMGUI REALSLIDER;}
			SHADERLINK INPUT_IMPORTANCE2_SHADER{ANIM OFF;HIDDEN;}
			SHADERLINK INPUT_IMPORTANCE2_SHADER_TEMP{ANIM OFF;HIDDEN;}
			POPUP POPUP_INPUT_IMPORTANCE2{SCALE_V;}
			
			STATICTEXT {}
			STATICTEXT {}
			
			COLOR INPUT_COLOR3{SCALE_H;}
			SHADERLINK INPUT_COLOR3_SHADER{ANIM OFF;HIDDEN;}
			SHADERLINK INPUT_COLOR3_SHADER_TEMP{ANIM OFF;HIDDEN;}
			POPUP POPUP_INPUT_COLOR3{SCALE_V;}
			
			REAL INPUT_IMPORTANCE3{SCALE_H;MIN 0; MINSLIDER 0; MAXSLIDER 1; STEP 0.001; CUSTOMGUI REALSLIDER;}
			SHADERLINK INPUT_IMPORTANCE3_SHADER{ANIM OFF;HIDDEN;}
			SHADERLINK INPUT_IMPORTANCE3_SHADER_TEMP{ANIM OFF;HIDDEN;}
			POPUP POPUP_INPUT_IMPORTANCE3{SCALE_V;}
			
			STATICTEXT {}
			STATICTEXT {}
			
			COLOR INPUT_COLOR4{SCALE_H;}
			SHADERLINK INPUT_COLOR4_SHADER{ANIM OFF;HIDDEN;}
			SHADERLINK INPUT_COLOR4_SHADER_TEMP{ANIM OFF;HIDDEN;}
			POPUP POPUP_INPUT_COLOR4{SCALE_V;}
			
			REAL INPUT_IMPORTANCE4{SCALE_H;MIN 0; MINSLIDER 0; MAXSLIDER 1; STEP 0.001; CUSTOMGUI REALSLIDER;}
			SHADERLINK INPUT_IMPORTANCE4_SHADER{ANIM OFF;HIDDEN;}
			SHADERLINK INPUT_IMPORTANCE4_SHADER_TEMP{ANIM OFF;HIDDEN;}
			POPUP POPUP_INPUT_IMPORTANCE4{SCALE_V;}
			
			STATICTEXT {}
			STATICTEXT {}
			
			COLOR INPUT_COLOR5{SCALE_H;}
			SHADERLINK INPUT_COLOR5_SHADER{ANIM OFF;HIDDEN;}
			SHADERLINK INPUT_COLOR5_SHADER_TEMP{ANIM OFF;HIDDEN;}
			POPUP POPUP_INPUT_COLOR5{SCALE_V;}
			
			REAL INPUT_IMPORTANCE5{SCALE_H;MIN 0; MINSLIDER 0; MAXSLIDER 1; STEP 0.001; CUSTOMGUI REALSLIDER;}
			SHADERLINK INPUT_IMPORTANCE5_SHADER{ANIM OFF;HIDDEN;}			
			SHADERLINK INPUT_IMPORTANCE5_SHADER_TEMP{ANIM OFF;HIDDEN;}			
			POPUP POPUP_INPUT_IMPORTANCE5{SCALE_V;}
			
			STATICTEXT{}
			STATICTEXT{}
			SEPARATOR RANDOM{}
			STATICTEXT{}
			
			REAL SEED{}
		}

	}

}