CONTAINER dl_worley_noise
{
	NAME dl_worley_noise;

	GROUP SHADER_GROUP
	{	
		COLUMNS 2;

		LONG WORLEY_NOISE_OUTPUT_TYPE
		{
			SCALE_H;
			CYCLE
			{
				WORLEY_NOISE_OUTPUT_TYPE_CELL_VALUE;
				WORLEY_NOISE_OUTPUT_TYPE_BORDERS;
				WORLEY_NOISE_OUTPUT_TYPE_VORONOI1;
				WORLEY_NOISE_OUTPUT_TYPE_VORONOI2;
				WORLEY_NOISE_OUTPUT_TYPE_VORONOI3;
				WORLEY_NOISE_OUTPUT_TYPE_VORONOI4;
			}
		}
		SEPARATOR{}
		
		LONG WORLEY_NOISE_DISTANCE_TYPE
		{
			CYCLE
			{
				WORLEY_NOISE_DISTANCE_TYPE_EUCLIDEAN;
				WORLEY_NOISE_DISTANCE_TYPE_MANHATTAN;
				WORLEY_NOISE_DISTANCE_TYPE_CHEBYSHEV;
				WORLEY_NOISE_DISTANCE_TYPE_MINKOWSKI;
			}
		}
		SEPARATOR{}
		
		REAL WORLEY_NOISE_MINKOWSKI_NUMBER{SCALE_H;MIN 0; MINSLIDER 0; MAXSLIDER 100; STEP 0.5; CUSTOMGUI REALSLIDER;}
		SHADERLINK WORLEY_NOISE_MINKOWSKI_NUMBER_SHADER{ANIM OFF;HIDDEN;}
		SHADERLINK WORLEY_NOISE_MINKOWSKI_NUMBER_SHADER_TEMP{ANIM OFF;HIDDEN;}
		POPUP POPUP_WORLEY_NOISE_MINKOWSKI_NUMBER{SCALE_V;}
		
		STATICTEXT {}
		STATICTEXT {}
		
		REAL WORLEY_NOISE_SCALE{SCALE_H;MIN 0; MINSLIDER 0; MAXSLIDER 1; STEP 0.01; CUSTOMGUI REALSLIDER;}
		SHADERLINK WORLEY_NOISE_SCALE_SHADER{ANIM OFF;HIDDEN;}
		SHADERLINK WORLEY_NOISE_SCALE_SHADER_TEMP{ANIM OFF;HIDDEN;}
		POPUP POPUP_WORLEY_NOISE_SCALE{SCALE_V;}

		REAL WORLEY_NOISE_DENSITY{SCALE_H;MIN 0;MINSLIDER 0; MAXSLIDER 1; STEP 0.01; CUSTOMGUI REALSLIDER;}
		SHADERLINK WORLEY_NOISE_DENSITY_SHADER{ANIM OFF;HIDDEN;}
		SHADERLINK WORLEY_NOISE_DENSITY_SHADER_TEMP{ANIM OFF;HIDDEN;}
		POPUP POPUP_WORLEY_NOISE_DENSITY{SCALE_V;}
			
		REAL WORLEY_NOISE_RANDOM_POSITION{SCALE_H;MIN 0;MINSLIDER 0; MAXSLIDER 1; STEP 0.01; CUSTOMGUI REALSLIDER;}
		SHADERLINK WORLEY_NOISE_RANDOM_POSITION_SHADER{ANIM OFF;HIDDEN;}
		SHADERLINK WORLEY_NOISE_RANDOM_POSITION_SHADER_TEMP{ANIM OFF;HIDDEN;}
		POPUP POPUP_WORLEY_NOISE_RANDOM_POSITION{SCALE_V;}
		
		STATICTEXT {}
		STATICTEXT {}
		
		REAL WORLEY_NOISE_TIME{SCALE_H;MIN 0; MINSLIDER 0; MAXSLIDER 10; STEP 0.1; CUSTOMGUI REALSLIDER;}
		SHADERLINK WORLEY_NOISE_TIME_SHADER{ANIM OFF;HIDDEN;}
		SHADERLINK WORLEY_NOISE_TIME_SHADER_TEMP{ANIM OFF;HIDDEN;}
		POPUP POPUP_WORLEY_NOISE_TIME{SCALE_V;}

		LONG WORLEY_NOISE_SPACE
		{
			SCALE_H;
			CYCLE
			{
				WORLEY_NOISE_SPACE_WORLD;
				WORLEY_NOISE_SPACE_OBJECT;
			}
		}
		SEPARATOR{}
		
		GROUP
		{	
			COLUMNS 2;
			STATICTEXT{}
			STATICTEXT{}
			SEPARATOR COLORS_GROUP{}
			STATICTEXT{}	
		}
		
		GRADIENT NOISE_COLORS_INSIDE_CELL {COLOR;}
		SEPARATOR{}
		
		GRADIENT NOISE_COLORS_ACROSS_CELL {COLOR;}
		SEPARATOR{}
		
		LONG WORLEY_NOISE_BLEND_MODE
		{
			SCALE_H;
			CYCLE
			{
				WORLEY_NOISE_BLEND_MODE_OVER;
				WORLEY_NOISE_BLEND_MODE_ADD;
				WORLEY_NOISE_BLEND_MODE_LIGHTEN;
			}
		}
		SEPARATOR{}
	
		COLOR WORLEY_NOISE_COLOR{SCALE_H;}
		SHADERLINK WORLEY_NOISE_COLOR_SHADER{ANIM OFF;HIDDEN;}
		SHADERLINK WORLEY_NOISE_COLOR_SHADER_TEMP{ANIM OFF;HIDDEN;}
		POPUP POPUP_WORLEY_NOISE_COLOR{SCALE_V;}	
		
		COLOR WORLEY_NOISE_BACKGROUND_COLOR{SCALE_H;}
		SHADERLINK WORLEY_NOISE_BACKGROUND_COLOR_SHADER{ANIM OFF;HIDDEN;}
		SHADERLINK WORLEY_NOISE_BACKGROUND_COLOR_SHADER_TEMP{ANIM OFF;HIDDEN;}
		POPUP POPUP_WORLEY_NOISE_BACKGROUND_COLOR{SCALE_V;}
		
		
		STATICTEXT{}
		STATICTEXT{}
		SEPARATOR DISTORTION_GROUP{}
		STATICTEXT{}	
		
	
		COLOR WORLEY_NOISE_DISTORTION{SCALE_H;}
		SHADERLINK WORLEY_NOISE_DISTORTION_SHADER{ANIM OFF;HIDDEN;}
		SHADERLINK WORLEY_NOISE_DISTORTION_SHADER_TEMP{ANIM OFF;HIDDEN;}
		POPUP POPUP_WORLEY_NOISE_DISTORTION{SCALE_V;}
			
		
		REAL WORLEY_NOISE_DISTORTION_INTENSITY{SCALE_H;MINSLIDER 0; MAXSLIDER 100; STEP 1; CUSTOMGUI REALSLIDER;}
		SHADERLINK WORLEY_NOISE_DISTORTION_INTENSITY_SHADER{ANIM OFF;HIDDEN;}
		SHADERLINK WORLEY_NOISE_DISTORTION_INTENSITY_SHADER_TEMP{ANIM OFF;HIDDEN;}
		POPUP POPUP_WORLEY_NOISE_DISTORTION_INTENSITY{SCALE_V;}
				
	
		STATICTEXT{}
		STATICTEXT{}
		SEPARATOR BORDERS_GROUP{}
		STATICTEXT{}
	
			
		REAL WORLEY_NOISE_BORDERS_THICKNESS{SCALE_H;MIN 0;MINSLIDER 0; MAXSLIDER 1; STEP 0.01; CUSTOMGUI REALSLIDER;}
		SHADERLINK WORLEY_NOISE_BORDERS_THICKNESS_SHADER{ANIM OFF;HIDDEN;}
		SHADERLINK WORLEY_NOISE_BORDERS_THICKNESS_SHADER_TEMP{ANIM OFF;HIDDEN;}
		POPUP POPUP_WORLEY_NOISE_BORDERS_THICKNESS{SCALE_V;}
							
		
		REAL WORLEY_NOISE_BORDERS_SMOOTHNESS{SCALE_H;MIN 0;MINSLIDER 0; MAXSLIDER 1; STEP 0.01; CUSTOMGUI REALSLIDER;}
		SHADERLINK WORLEY_NOISE_BORDERS_SMOOTHNESS_SHADER{ANIM OFF;HIDDEN;}
		SHADERLINK WORLEY_NOISE_BORDERS_SMOOTHNESS_SHADER_TEMP{ANIM OFF;HIDDEN;}
		POPUP POPUP_WORLEY_NOISE_BORDERS_SMOOTHNESS{SCALE_V;}
					
	
		STATICTEXT{}
		STATICTEXT{}
		SEPARATOR LAYERS_GROUP{}
		STATICTEXT{}
	

		
		LONG WORLEY_NOISE_LAYERS{SCALE_H;MIN 1; MINSLIDER 1; MAXSLIDER 10; CUSTOMGUI LONGSLIDER;}		
		SEPARATOR{};
		
		REAL WORLEY_NOISE_PERSISTENCE{SCALE_H;MIN 0;MINSLIDER 0; MAXSLIDER 1; STEP 0.01; CUSTOMGUI REALSLIDER;}
		SHADERLINK WORLEY_NOISE_PERSISTENCE_SHADER{ANIM OFF;HIDDEN;}
		SHADERLINK WORLEY_NOISE_PERSISTENCE_SHADER_TEMP{ANIM OFF;HIDDEN;}
		POPUP POPUP_WORLEY_NOISE_PERSISTENCE{SCALE_V;}
		
		REAL WORLEY_NOISE_LAYERS_SCALE{SCALE_H;MIN 0;MINSLIDER 0; MAXSLIDER 1; STEP 0.01; CUSTOMGUI REALSLIDER;}
		SHADERLINK WORLEY_NOISE_LAYERS_SCALE_SHADER{ANIM OFF;HIDDEN;}
		SHADERLINK WORLEY_NOISE_LAYERS_SCALE_SHADER_TEMP{ANIM OFF;HIDDEN;}
		POPUP POPUP_WORLEY_NOISE_LAYERS_SCALE{SCALE_V;}		
		
		REAL WORLEY_NOISE_LAYERS_DENSITY{SCALE_H;MIN 0;MINSLIDER 0; MAXSLIDER 1; STEP 0.01; CUSTOMGUI REALSLIDER;}
		SHADERLINK WORLEY_NOISE_LAYERS_DENSITY_SHADER{ANIM OFF;HIDDEN;}
		SHADERLINK WORLEY_NOISE_LAYERS_DENSITY_SHADER_TEMP{ANIM OFF;HIDDEN;}
		POPUP POPUP_WORLEY_NOISE_LAYERS_DENSITY{SCALE_V;}


		STATICTEXT{}
		STATICTEXT{}
		SEPARATOR ADJUST_GROUP{}
		STATICTEXT{}


		BOOL WORLEY_NOISE_ADJUST_INVERT{}
		SEPARATOR{}
		REAL WORLEY_NOISE_ADJUST_AMPLITUDE{SCALE_H;MIN 0;MINSLIDER 0; MAXSLIDER 1; STEP 0.01; CUSTOMGUI REALSLIDER;}
		SHADERLINK WORLEY_NOISE_ADJUST_AMPLITUDE_SHADER{ANIM OFF;HIDDEN;}
		SHADERLINK WORLEY_NOISE_ADJUST_AMPLITUDE_SHADER_TEMP{ANIM OFF;HIDDEN;}
		POPUP POPUP_WORLEY_NOISE_ADJUST_AMPLITUDE{SCALE_V;}

			
		REAL WORLEY_NOISE_ADJUST_CONTRAST{SCALE_H;MIN 0;MINSLIDER 0; MAXSLIDER 1; STEP 0.01; CUSTOMGUI REALSLIDER;}
		SHADERLINK WORLEY_NOISE_ADJUST_CONTRAST_SHADER{ANIM OFF;HIDDEN;}
		SHADERLINK WORLEY_NOISE_ADJUST_CONTRAST_SHADER_TEMP{ANIM OFF;HIDDEN;}
		POPUP POPUP_WORLEY_NOISE_ADJUST_CONTRAST{SCALE_V;}
			
	}
}

